^C:\USERS\ANTON\ONEDRIVE\DOCUMENTI\PIETRO\MASTER\MATERIALE_DIDATTICO\ADV_GRAPHICS\VS\ADVANCEDGRAPHICSPROJECT\ADVANCEDGRAPHICSPROJECT\CAMERA.CPP
/c /Zi /nologo /W3 /WX- /diagnostics:column /sdl /O2 /Oi /Oy- /GL /D WIN32 /D NDEBUG /D _CONSOLE /D _UNICODE /D UNICODE /Gm- /EHsc /MD /GS /Gy /fp:precise /permissive- /Zc:wchar_t /Zc:forScope /Zc:inline /Fo"RELEASE\\" /Fd"RELEASE\VC142.PDB" /external:W3 /Gd /TP /analyze- /FC C:\USERS\ANTON\ONEDRIVE\DOCUMENTI\PIETRO\MASTER\MATERIALE_DIDATTICO\ADV_GRAPHICS\VS\ADVANCEDGRAPHICSPROJECT\ADVANCEDGRAPHICSPROJECT\CAMERA.CPP
^C:\USERS\ANTON\ONEDRIVE\DOCUMENTI\PIETRO\MASTER\MATERIALE_DIDATTICO\ADV_GRAPHICS\VS\ADVANCEDGRAPHICSPROJECT\ADVANCEDGRAPHICSPROJECT\GAMEOBJECT.CPP
/c /Zi /nologo /W3 /WX- /diagnostics:column /sdl /O2 /Oi /Oy- /GL /D WIN32 /D NDEBUG /D _CONSOLE /D _UNICODE /D UNICODE /Gm- /EHsc /MD /GS /Gy /fp:precise /permissive- /Zc:wchar_t /Zc:forScope /Zc:inline /Fo"RELEASE\\" /Fd"RELEASE\VC142.PDB" /external:W3 /Gd /TP /analyze- /FC C:\USERS\ANTON\ONEDRIVE\DOCUMENTI\PIETRO\MASTER\MATERIALE_DIDATTICO\ADV_GRAPHICS\VS\ADVANCEDGRAPHICSPROJECT\ADVANCEDGRAPHICSPROJECT\GAMEOBJECT.CPP
^C:\USERS\ANTON\ONEDRIVE\DOCUMENTI\PIETRO\MASTER\MATERIALE_DIDATTICO\ADV_GRAPHICS\VS\ADVANCEDGRAPHICSPROJECT\ADVANCEDGRAPHICSPROJECT\QUATERNION.CPP
/c /Zi /nologo /W3 /WX- /diagnostics:column /sdl /O2 /Oi /Oy- /GL /D WIN32 /D NDEBUG /D _CONSOLE /D _UNICODE /D UNICODE /Gm- /EHsc /MD /GS /Gy /fp:precise /permissive- /Zc:wchar_t /Zc:forScope /Zc:inline /Fo"RELEASE\\" /Fd"RELEASE\VC142.PDB" /external:W3 /Gd /TP /analyze- /FC C:\USERS\ANTON\ONEDRIVE\DOCUMENTI\PIETRO\MASTER\MATERIALE_DIDATTICO\ADV_GRAPHICS\VS\ADVANCEDGRAPHICSPROJECT\ADVANCEDGRAPHICSPROJECT\QUATERNION.CPP
^C:\USERS\ANTON\ONEDRIVE\DOCUMENTI\PIETRO\MASTER\MATERIALE_DIDATTICO\ADV_GRAPHICS\VS\ADVANCEDGRAPHICSPROJECT\ADVANCEDGRAPHICSPROJECT\SCENE.CPP
/c /Zi /nologo /W3 /WX- /diagnostics:column /sdl /O2 /Oi /Oy- /GL /D WIN32 /D NDEBUG /D _CONSOLE /D _UNICODE /D UNICODE /Gm- /EHsc /MD /GS /Gy /fp:precise /permissive- /Zc:wchar_t /Zc:forScope /Zc:inline /Fo"RELEASE\\" /Fd"RELEASE\VC142.PDB" /external:W3 /Gd /TP /analyze- /FC C:\USERS\ANTON\ONEDRIVE\DOCUMENTI\PIETRO\MASTER\MATERIALE_DIDATTICO\ADV_GRAPHICS\VS\ADVANCEDGRAPHICSPROJECT\ADVANCEDGRAPHICSPROJECT\SCENE.CPP
^C:\USERS\ANTON\ONEDRIVE\DOCUMENTI\PIETRO\MASTER\MATERIALE_DIDATTICO\ADV_GRAPHICS\VS\ADVANCEDGRAPHICSPROJECT\ADVANCEDGRAPHICSPROJECT\SHAPE3.CPP
/c /Zi /nologo /W3 /WX- /diagnostics:column /sdl /O2 /Oi /Oy- /GL /D WIN32 /D NDEBUG /D _CONSOLE /D _UNICODE /D UNICODE /Gm- /EHsc /MD /GS /Gy /fp:precise /permissive- /Zc:wchar_t /Zc:forScope /Zc:inline /Fo"RELEASE\\" /Fd"RELEASE\VC142.PDB" /external:W3 /Gd /TP /analyze- /FC C:\USERS\ANTON\ONEDRIVE\DOCUMENTI\PIETRO\MASTER\MATERIALE_DIDATTICO\ADV_GRAPHICS\VS\ADVANCEDGRAPHICSPROJECT\ADVANCEDGRAPHICSPROJECT\SHAPE3.CPP
^C:\USERS\ANTON\ONEDRIVE\DOCUMENTI\PIETRO\MASTER\MATERIALE_DIDATTICO\ADV_GRAPHICS\VS\ADVANCEDGRAPHICSPROJECT\ADVANCEDGRAPHICSPROJECT\TRANSFORM.CPP
/c /Zi /nologo /W3 /WX- /diagnostics:column /sdl /O2 /Oi /Oy- /GL /D WIN32 /D NDEBUG /D _CONSOLE /D _UNICODE /D UNICODE /Gm- /EHsc /MD /GS /Gy /fp:precise /permissive- /Zc:wchar_t /Zc:forScope /Zc:inline /Fo"RELEASE\\" /Fd"RELEASE\VC142.PDB" /external:W3 /Gd /TP /analyze- /FC C:\USERS\ANTON\ONEDRIVE\DOCUMENTI\PIETRO\MASTER\MATERIALE_DIDATTICO\ADV_GRAPHICS\VS\ADVANCEDGRAPHICSPROJECT\ADVANCEDGRAPHICSPROJECT\TRANSFORM.CPP
^C:\USERS\ANTON\ONEDRIVE\DOCUMENTI\PIETRO\MASTER\MATERIALE_DIDATTICO\ADV_GRAPHICS\VS\ADVANCEDGRAPHICSPROJECT\ADVANCEDGRAPHICSPROJECT\VECTOR3.CPP
/c /Zi /nologo /W3 /WX- /diagnostics:column /sdl /O2 /Oi /Oy- /GL /D WIN32 /D NDEBUG /D _CONSOLE /D _UNICODE /D UNICODE /Gm- /EHsc /MD /GS /Gy /fp:precise /permissive- /Zc:wchar_t /Zc:forScope /Zc:inline /Fo"RELEASE\\" /Fd"RELEASE\VC142.PDB" /external:W3 /Gd /TP /analyze- /FC C:\USERS\ANTON\ONEDRIVE\DOCUMENTI\PIETRO\MASTER\MATERIALE_DIDATTICO\ADV_GRAPHICS\VS\ADVANCEDGRAPHICSPROJECT\ADVANCEDGRAPHICSPROJECT\VECTOR3.CPP
^C:\USERS\ANTON\ONEDRIVE\DOCUMENTI\PIETRO\MASTER\MATERIALE_DIDATTICO\ADV_GRAPHICS\VS\ADVANCEDGRAPHICSPROJECT\ADVANCEDGRAPHICSPROJECT\MAIN.CPP
/c /Zi /nologo /W3 /WX- /diagnostics:column /sdl /O2 /Oi /Oy- /GL /D WIN32 /D NDEBUG /D _CONSOLE /D _UNICODE /D UNICODE /Gm- /EHsc /MD /GS /Gy /fp:precise /permissive- /Zc:wchar_t /Zc:forScope /Zc:inline /Fo"RELEASE\\" /Fd"RELEASE\VC142.PDB" /external:W3 /Gd /TP /analyze- /FC C:\USERS\ANTON\ONEDRIVE\DOCUMENTI\PIETRO\MASTER\MATERIALE_DIDATTICO\ADV_GRAPHICS\VS\ADVANCEDGRAPHICSPROJECT\ADVANCEDGRAPHICSPROJECT\MAIN.CPP
^D:\PIETRO\BACKUP\PIETRO\MASTER\MATERIALE_DIDATTICO\ADV_GRAPHICS\VS\ADVANCEDGRAPHICSPROJECT\ADVANCEDGRAPHICSPROJECT\QUATERNION.CPP
/c /Zi /nologo /W3 /WX- /diagnostics:column /sdl /O2 /Oi /Oy- /GL /D WIN32 /D NDEBUG /D _CONSOLE /D _UNICODE /D UNICODE /Gm- /EHsc /MD /GS /Gy /fp:precise /permissive- /Zc:wchar_t /Zc:forScope /Zc:inline /Fo"RELEASE\\" /Fd"RELEASE\VC142.PDB" /external:W3 /Gd /TP /analyze- /FC D:\PIETRO\BACKUP\PIETRO\MASTER\MATERIALE_DIDATTICO\ADV_GRAPHICS\VS\ADVANCEDGRAPHICSPROJECT\ADVANCEDGRAPHICSPROJECT\QUATERNION.CPP
^D:\PIETRO\BACKUP\PIETRO\MASTER\MATERIALE_DIDATTICO\ADV_GRAPHICS\VS\ADVANCEDGRAPHICSPROJECT\ADVANCEDGRAPHICSPROJECT\VECTOR3.CPP
/c /Zi /nologo /W3 /WX- /diagnostics:column /sdl /O2 /Oi /Oy- /GL /D WIN32 /D NDEBUG /D _CONSOLE /D _UNICODE /D UNICODE /Gm- /EHsc /MD /GS /Gy /fp:precise /permissive- /Zc:wchar_t /Zc:forScope /Zc:inline /Fo"RELEASE\\" /Fd"RELEASE\VC142.PDB" /external:W3 /Gd /TP /analyze- /FC D:\PIETRO\BACKUP\PIETRO\MASTER\MATERIALE_DIDATTICO\ADV_GRAPHICS\VS\ADVANCEDGRAPHICSPROJECT\ADVANCEDGRAPHICSPROJECT\VECTOR3.CPP
^D:\PIETRO\BACKUP\PIETRO\MASTER\MATERIALE_DIDATTICO\ADV_GRAPHICS\VS\ADVANCEDGRAPHICSPROJECT\ADVANCEDGRAPHICSPROJECT\CAMERA.CPP
/c /Zi /nologo /W3 /WX- /diagnostics:column /sdl /O2 /Oi /Oy- /GL /D WIN32 /D NDEBUG /D _CONSOLE /D _UNICODE /D UNICODE /Gm- /EHsc /MD /GS /Gy /fp:precise /permissive- /Zc:wchar_t /Zc:forScope /Zc:inline /Fo"RELEASE\\" /Fd"RELEASE\VC142.PDB" /external:W3 /Gd /TP /analyze- /FC D:\PIETRO\BACKUP\PIETRO\MASTER\MATERIALE_DIDATTICO\ADV_GRAPHICS\VS\ADVANCEDGRAPHICSPROJECT\ADVANCEDGRAPHICSPROJECT\CAMERA.CPP
^D:\PIETRO\BACKUP\PIETRO\MASTER\MATERIALE_DIDATTICO\ADV_GRAPHICS\VS\ADVANCEDGRAPHICSPROJECT\ADVANCEDGRAPHICSPROJECT\GAMEOBJECT.CPP
/c /Zi /nologo /W3 /WX- /diagnostics:column /sdl /O2 /Oi /Oy- /GL /D WIN32 /D NDEBUG /D _CONSOLE /D _UNICODE /D UNICODE /Gm- /EHsc /MD /GS /Gy /fp:precise /permissive- /Zc:wchar_t /Zc:forScope /Zc:inline /Fo"RELEASE\\" /Fd"RELEASE\VC142.PDB" /external:W3 /Gd /TP /analyze- /FC D:\PIETRO\BACKUP\PIETRO\MASTER\MATERIALE_DIDATTICO\ADV_GRAPHICS\VS\ADVANCEDGRAPHICSPROJECT\ADVANCEDGRAPHICSPROJECT\GAMEOBJECT.CPP
^D:\PIETRO\BACKUP\PIETRO\MASTER\MATERIALE_DIDATTICO\ADV_GRAPHICS\VS\ADVANCEDGRAPHICSPROJECT\ADVANCEDGRAPHICSPROJECT\SCENE.CPP
/c /Zi /nologo /W3 /WX- /diagnostics:column /sdl /O2 /Oi /Oy- /GL /D WIN32 /D NDEBUG /D _CONSOLE /D _UNICODE /D UNICODE /Gm- /EHsc /MD /GS /Gy /fp:precise /permissive- /Zc:wchar_t /Zc:forScope /Zc:inline /Fo"RELEASE\\" /Fd"RELEASE\VC142.PDB" /external:W3 /Gd /TP /analyze- /FC D:\PIETRO\BACKUP\PIETRO\MASTER\MATERIALE_DIDATTICO\ADV_GRAPHICS\VS\ADVANCEDGRAPHICSPROJECT\ADVANCEDGRAPHICSPROJECT\SCENE.CPP
^D:\PIETRO\BACKUP\PIETRO\MASTER\MATERIALE_DIDATTICO\ADV_GRAPHICS\VS\ADVANCEDGRAPHICSPROJECT\ADVANCEDGRAPHICSPROJECT\SHAPE3.CPP
/c /Zi /nologo /W3 /WX- /diagnostics:column /sdl /O2 /Oi /Oy- /GL /D WIN32 /D NDEBUG /D _CONSOLE /D _UNICODE /D UNICODE /Gm- /EHsc /MD /GS /Gy /fp:precise /permissive- /Zc:wchar_t /Zc:forScope /Zc:inline /Fo"RELEASE\\" /Fd"RELEASE\VC142.PDB" /external:W3 /Gd /TP /analyze- /FC D:\PIETRO\BACKUP\PIETRO\MASTER\MATERIALE_DIDATTICO\ADV_GRAPHICS\VS\ADVANCEDGRAPHICSPROJECT\ADVANCEDGRAPHICSPROJECT\SHAPE3.CPP
^D:\PIETRO\BACKUP\PIETRO\MASTER\MATERIALE_DIDATTICO\ADV_GRAPHICS\VS\ADVANCEDGRAPHICSPROJECT\ADVANCEDGRAPHICSPROJECT\TRANSFORM.CPP
/c /Zi /nologo /W3 /WX- /diagnostics:column /sdl /O2 /Oi /Oy- /GL /D WIN32 /D NDEBUG /D _CONSOLE /D _UNICODE /D UNICODE /Gm- /EHsc /MD /GS /Gy /fp:precise /permissive- /Zc:wchar_t /Zc:forScope /Zc:inline /Fo"RELEASE\\" /Fd"RELEASE\VC142.PDB" /external:W3 /Gd /TP /analyze- /FC D:\PIETRO\BACKUP\PIETRO\MASTER\MATERIALE_DIDATTICO\ADV_GRAPHICS\VS\ADVANCEDGRAPHICSPROJECT\ADVANCEDGRAPHICSPROJECT\TRANSFORM.CPP
^D:\PIETRO\BACKUP\PIETRO\MASTER\MATERIALE_DIDATTICO\ADV_GRAPHICS\VS\ADVANCEDGRAPHICSPROJECT\ADVANCEDGRAPHICSPROJECT\MAIN.CPP
/c /Zi /nologo /W3 /WX- /diagnostics:column /sdl /O2 /Oi /Oy- /GL /D WIN32 /D NDEBUG /D _CONSOLE /D _UNICODE /D UNICODE /Gm- /EHsc /MD /GS /Gy /fp:precise /permissive- /Zc:wchar_t /Zc:forScope /Zc:inline /Fo"RELEASE\\" /Fd"RELEASE\VC142.PDB" /external:W3 /Gd /TP /analyze- /FC D:\PIETRO\BACKUP\PIETRO\MASTER\MATERIALE_DIDATTICO\ADV_GRAPHICS\VS\ADVANCEDGRAPHICSPROJECT\ADVANCEDGRAPHICSPROJECT\MAIN.CPP
