^D:\PIETRO\BACKUP\PIETRO\MASTER\MATERIALE_DIDATTICO\ADV_GRAPHICS\VS\ADVANCEDGRAPHICSPROJECT\ADVANCEDGRAPHICSPROJECT\CAMERA.CPP|D:\PIETRO\BACKUP\PIETRO\MASTER\MATERIALE_DIDATTICO\ADV_GRAPHICS\VS\ADVANCEDGRAPHICSPROJECT\ADVANCEDGRAPHICSPROJECT\GAMEOBJECT.CPP|D:\PIETRO\BACKUP\PIETRO\MASTER\MATERIALE_DIDATTICO\ADV_GRAPHICS\VS\ADVANCEDGRAPHICSPROJECT\ADVANCEDGRAPHICSPROJECT\MAIN.CPP|D:\PIETRO\BACKUP\PIETRO\MASTER\MATERIALE_DIDATTICO\ADV_GRAPHICS\VS\ADVANCEDGRAPHICSPROJECT\ADVANCEDGRAPHICSPROJECT\QUATERNION.CPP|D:\PIETRO\BACKUP\PIETRO\MASTER\MATERIALE_DIDATTICO\ADV_GRAPHICS\VS\ADVANCEDGRAPHICSPROJECT\ADVANCEDGRAPHICSPROJECT\SCENE.CPP|D:\PIETRO\BACKUP\PIETRO\MASTER\MATERIALE_DIDATTICO\ADV_GRAPHICS\VS\ADVANCEDGRAPHICSPROJECT\ADVANCEDGRAPHICSPROJECT\SHAPE3.CPP|D:\PIETRO\BACKUP\PIETRO\MASTER\MATERIALE_DIDATTICO\ADV_GRAPHICS\VS\ADVANCEDGRAPHICSPROJECT\ADVANCEDGRAPHICSPROJECT\TRANSFORM.CPP|D:\PIETRO\BACKUP\PIETRO\MASTER\MATERIALE_DIDATTICO\ADV_GRAPHICS\VS\ADVANCEDGRAPHICSPROJECT\ADVANCEDGRAPHICSPROJECT\VECTOR3.CPP
D:\PIETRO\BACKUP\PIETRO\MASTER\MATERIALE_DIDATTICO\ADV_GRAPHICS\VS\ADVANCEDGRAPHICSPROJECT\ADVANCEDGRAPHICSPROJECT\RELEASE\VC142.PDB
D:\PIETRO\BACKUP\PIETRO\MASTER\MATERIALE_DIDATTICO\ADV_GRAPHICS\VS\ADVANCEDGRAPHICSPROJECT\ADVANCEDGRAPHICSPROJECT\RELEASE\VECTOR3.OBJ
D:\PIETRO\BACKUP\PIETRO\MASTER\MATERIALE_DIDATTICO\ADV_GRAPHICS\VS\ADVANCEDGRAPHICSPROJECT\ADVANCEDGRAPHICSPROJECT\RELEASE\TRANSFORM.OBJ
D:\PIETRO\BACKUP\PIETRO\MASTER\MATERIALE_DIDATTICO\ADV_GRAPHICS\VS\ADVANCEDGRAPHICSPROJECT\ADVANCEDGRAPHICSPROJECT\RELEASE\SHAPE3.OBJ
D:\PIETRO\BACKUP\PIETRO\MASTER\MATERIALE_DIDATTICO\ADV_GRAPHICS\VS\ADVANCEDGRAPHICSPROJECT\ADVANCEDGRAPHICSPROJECT\RELEASE\SCENE.OBJ
D:\PIETRO\BACKUP\PIETRO\MASTER\MATERIALE_DIDATTICO\ADV_GRAPHICS\VS\ADVANCEDGRAPHICSPROJECT\ADVANCEDGRAPHICSPROJECT\RELEASE\QUATERNION.OBJ
D:\PIETRO\BACKUP\PIETRO\MASTER\MATERIALE_DIDATTICO\ADV_GRAPHICS\VS\ADVANCEDGRAPHICSPROJECT\ADVANCEDGRAPHICSPROJECT\RELEASE\MAIN.OBJ
D:\PIETRO\BACKUP\PIETRO\MASTER\MATERIALE_DIDATTICO\ADV_GRAPHICS\VS\ADVANCEDGRAPHICSPROJECT\ADVANCEDGRAPHICSPROJECT\RELEASE\GAMEOBJECT.OBJ
D:\PIETRO\BACKUP\PIETRO\MASTER\MATERIALE_DIDATTICO\ADV_GRAPHICS\VS\ADVANCEDGRAPHICSPROJECT\ADVANCEDGRAPHICSPROJECT\RELEASE\CAMERA.OBJ
^D:\PIETRO\BACKUP\PIETRO\MASTER\MATERIALE_DIDATTICO\ADV_GRAPHICS\VS\ADVANCEDGRAPHICSPROJECT\ADVANCEDGRAPHICSPROJECT\QUATERNION.CPP
D:\PIETRO\BACKUP\PIETRO\MASTER\MATERIALE_DIDATTICO\ADV_GRAPHICS\VS\ADVANCEDGRAPHICSPROJECT\ADVANCEDGRAPHICSPROJECT\RELEASE\VC142.PDB
^D:\PIETRO\BACKUP\PIETRO\MASTER\MATERIALE_DIDATTICO\ADV_GRAPHICS\VS\ADVANCEDGRAPHICSPROJECT\ADVANCEDGRAPHICSPROJECT\VECTOR3.CPP
D:\PIETRO\BACKUP\PIETRO\MASTER\MATERIALE_DIDATTICO\ADV_GRAPHICS\VS\ADVANCEDGRAPHICSPROJECT\ADVANCEDGRAPHICSPROJECT\RELEASE\VC142.PDB
^D:\PIETRO\BACKUP\PIETRO\MASTER\MATERIALE_DIDATTICO\ADV_GRAPHICS\VS\ADVANCEDGRAPHICSPROJECT\ADVANCEDGRAPHICSPROJECT\CAMERA.CPP|D:\PIETRO\BACKUP\PIETRO\MASTER\MATERIALE_DIDATTICO\ADV_GRAPHICS\VS\ADVANCEDGRAPHICSPROJECT\ADVANCEDGRAPHICSPROJECT\GAMEOBJECT.CPP|D:\PIETRO\BACKUP\PIETRO\MASTER\MATERIALE_DIDATTICO\ADV_GRAPHICS\VS\ADVANCEDGRAPHICSPROJECT\ADVANCEDGRAPHICSPROJECT\MAIN.CPP|D:\PIETRO\BACKUP\PIETRO\MASTER\MATERIALE_DIDATTICO\ADV_GRAPHICS\VS\ADVANCEDGRAPHICSPROJECT\ADVANCEDGRAPHICSPROJECT\SCENE.CPP|D:\PIETRO\BACKUP\PIETRO\MASTER\MATERIALE_DIDATTICO\ADV_GRAPHICS\VS\ADVANCEDGRAPHICSPROJECT\ADVANCEDGRAPHICSPROJECT\SHAPE3.CPP|D:\PIETRO\BACKUP\PIETRO\MASTER\MATERIALE_DIDATTICO\ADV_GRAPHICS\VS\ADVANCEDGRAPHICSPROJECT\ADVANCEDGRAPHICSPROJECT\TRANSFORM.CPP
D:\PIETRO\BACKUP\PIETRO\MASTER\MATERIALE_DIDATTICO\ADV_GRAPHICS\VS\ADVANCEDGRAPHICSPROJECT\ADVANCEDGRAPHICSPROJECT\RELEASE\VC142.PDB
D:\PIETRO\BACKUP\PIETRO\MASTER\MATERIALE_DIDATTICO\ADV_GRAPHICS\VS\ADVANCEDGRAPHICSPROJECT\ADVANCEDGRAPHICSPROJECT\RELEASE\TRANSFORM.OBJ
D:\PIETRO\BACKUP\PIETRO\MASTER\MATERIALE_DIDATTICO\ADV_GRAPHICS\VS\ADVANCEDGRAPHICSPROJECT\ADVANCEDGRAPHICSPROJECT\RELEASE\SHAPE3.OBJ
D:\PIETRO\BACKUP\PIETRO\MASTER\MATERIALE_DIDATTICO\ADV_GRAPHICS\VS\ADVANCEDGRAPHICSPROJECT\ADVANCEDGRAPHICSPROJECT\RELEASE\SCENE.OBJ
D:\PIETRO\BACKUP\PIETRO\MASTER\MATERIALE_DIDATTICO\ADV_GRAPHICS\VS\ADVANCEDGRAPHICSPROJECT\ADVANCEDGRAPHICSPROJECT\RELEASE\MAIN.OBJ
D:\PIETRO\BACKUP\PIETRO\MASTER\MATERIALE_DIDATTICO\ADV_GRAPHICS\VS\ADVANCEDGRAPHICSPROJECT\ADVANCEDGRAPHICSPROJECT\RELEASE\GAMEOBJECT.OBJ
D:\PIETRO\BACKUP\PIETRO\MASTER\MATERIALE_DIDATTICO\ADV_GRAPHICS\VS\ADVANCEDGRAPHICSPROJECT\ADVANCEDGRAPHICSPROJECT\RELEASE\CAMERA.OBJ
^D:\PIETRO\BACKUP\PIETRO\MASTER\MATERIALE_DIDATTICO\ADV_GRAPHICS\VS\ADVANCEDGRAPHICSPROJECT\ADVANCEDGRAPHICSPROJECT\CAMERA.CPP
D:\PIETRO\BACKUP\PIETRO\MASTER\MATERIALE_DIDATTICO\ADV_GRAPHICS\VS\ADVANCEDGRAPHICSPROJECT\ADVANCEDGRAPHICSPROJECT\RELEASE\VC142.PDB
^D:\PIETRO\BACKUP\PIETRO\MASTER\MATERIALE_DIDATTICO\ADV_GRAPHICS\VS\ADVANCEDGRAPHICSPROJECT\ADVANCEDGRAPHICSPROJECT\GAMEOBJECT.CPP
D:\PIETRO\BACKUP\PIETRO\MASTER\MATERIALE_DIDATTICO\ADV_GRAPHICS\VS\ADVANCEDGRAPHICSPROJECT\ADVANCEDGRAPHICSPROJECT\RELEASE\VC142.PDB
^D:\PIETRO\BACKUP\PIETRO\MASTER\MATERIALE_DIDATTICO\ADV_GRAPHICS\VS\ADVANCEDGRAPHICSPROJECT\ADVANCEDGRAPHICSPROJECT\SCENE.CPP
D:\PIETRO\BACKUP\PIETRO\MASTER\MATERIALE_DIDATTICO\ADV_GRAPHICS\VS\ADVANCEDGRAPHICSPROJECT\ADVANCEDGRAPHICSPROJECT\RELEASE\VC142.PDB
^D:\PIETRO\BACKUP\PIETRO\MASTER\MATERIALE_DIDATTICO\ADV_GRAPHICS\VS\ADVANCEDGRAPHICSPROJECT\ADVANCEDGRAPHICSPROJECT\SHAPE3.CPP
D:\PIETRO\BACKUP\PIETRO\MASTER\MATERIALE_DIDATTICO\ADV_GRAPHICS\VS\ADVANCEDGRAPHICSPROJECT\ADVANCEDGRAPHICSPROJECT\RELEASE\VC142.PDB
^D:\PIETRO\BACKUP\PIETRO\MASTER\MATERIALE_DIDATTICO\ADV_GRAPHICS\VS\ADVANCEDGRAPHICSPROJECT\ADVANCEDGRAPHICSPROJECT\TRANSFORM.CPP
D:\PIETRO\BACKUP\PIETRO\MASTER\MATERIALE_DIDATTICO\ADV_GRAPHICS\VS\ADVANCEDGRAPHICSPROJECT\ADVANCEDGRAPHICSPROJECT\RELEASE\VC142.PDB
^D:\PIETRO\BACKUP\PIETRO\MASTER\MATERIALE_DIDATTICO\ADV_GRAPHICS\VS\ADVANCEDGRAPHICSPROJECT\ADVANCEDGRAPHICSPROJECT\MAIN.CPP
D:\PIETRO\BACKUP\PIETRO\MASTER\MATERIALE_DIDATTICO\ADV_GRAPHICS\VS\ADVANCEDGRAPHICSPROJECT\ADVANCEDGRAPHICSPROJECT\RELEASE\VC142.PDB
D:\PIETRO\BACKUP\PIETRO\MASTER\MATERIALE_DIDATTICO\ADV_GRAPHICS\VS\ADVANCEDGRAPHICSPROJECT\ADVANCEDGRAPHICSPROJECT\RELEASE\MAIN.OBJ
