^C:\USERS\ANTON\ONEDRIVE\DOCUMENTI\PIETRO\MASTER\MATERIALE_DIDATTICO\ADV_GRAPHICS\VS\ADVANCEDGRAPHICSPROJECT\ADVANCEDGRAPHICSPROJECT\CAMERA.CPP
/c /ZI /JMC /nologo /W3 /WX- /diagnostics:column /sdl /Od /Oy- /D WIN32 /D _DEBUG /D _CONSOLE /D _UNICODE /D UNICODE /Gm- /EHsc /RTC1 /MDd /GS /fp:precise /permissive- /Zc:wchar_t /Zc:forScope /Zc:inline /Fo"DEBUG\\" /Fd"DEBUG\VC142.PDB" /external:W3 /Gd /TP /analyze- /FC C:\USERS\ANTON\ONEDRIVE\DOCUMENTI\PIETRO\MASTER\MATERIALE_DIDATTICO\ADV_GRAPHICS\VS\ADVANCEDGRAPHICSPROJECT\ADVANCEDGRAPHICSPROJECT\CAMERA.CPP
^C:\USERS\ANTON\ONEDRIVE\DOCUMENTI\PIETRO\MASTER\MATERIALE_DIDATTICO\ADV_GRAPHICS\VS\ADVANCEDGRAPHICSPROJECT\ADVANCEDGRAPHICSPROJECT\GAMEOBJECT.CPP
/c /ZI /JMC /nologo /W3 /WX- /diagnostics:column /sdl /Od /Oy- /D WIN32 /D _DEBUG /D _CONSOLE /D _UNICODE /D UNICODE /Gm- /EHsc /RTC1 /MDd /GS /fp:precise /permissive- /Zc:wchar_t /Zc:forScope /Zc:inline /Fo"DEBUG\\" /Fd"DEBUG\VC142.PDB" /external:W3 /Gd /TP /analyze- /FC C:\USERS\ANTON\ONEDRIVE\DOCUMENTI\PIETRO\MASTER\MATERIALE_DIDATTICO\ADV_GRAPHICS\VS\ADVANCEDGRAPHICSPROJECT\ADVANCEDGRAPHICSPROJECT\GAMEOBJECT.CPP
^C:\USERS\ANTON\ONEDRIVE\DOCUMENTI\PIETRO\MASTER\MATERIALE_DIDATTICO\ADV_GRAPHICS\VS\ADVANCEDGRAPHICSPROJECT\ADVANCEDGRAPHICSPROJECT\QUATERNION.CPP
/c /ZI /JMC /nologo /W3 /WX- /diagnostics:column /sdl /Od /Oy- /D WIN32 /D _DEBUG /D _CONSOLE /D _UNICODE /D UNICODE /Gm- /EHsc /RTC1 /MDd /GS /fp:precise /permissive- /Zc:wchar_t /Zc:forScope /Zc:inline /Fo"DEBUG\\" /Fd"DEBUG\VC142.PDB" /external:W3 /Gd /TP /analyze- /FC C:\USERS\ANTON\ONEDRIVE\DOCUMENTI\PIETRO\MASTER\MATERIALE_DIDATTICO\ADV_GRAPHICS\VS\ADVANCEDGRAPHICSPROJECT\ADVANCEDGRAPHICSPROJECT\QUATERNION.CPP
^C:\USERS\ANTON\ONEDRIVE\DOCUMENTI\PIETRO\MASTER\MATERIALE_DIDATTICO\ADV_GRAPHICS\VS\ADVANCEDGRAPHICSPROJECT\ADVANCEDGRAPHICSPROJECT\SCENE.CPP
/c /ZI /JMC /nologo /W3 /WX- /diagnostics:column /sdl /Od /Oy- /D WIN32 /D _DEBUG /D _CONSOLE /D _UNICODE /D UNICODE /Gm- /EHsc /RTC1 /MDd /GS /fp:precise /permissive- /Zc:wchar_t /Zc:forScope /Zc:inline /Fo"DEBUG\\" /Fd"DEBUG\VC142.PDB" /external:W3 /Gd /TP /analyze- /FC C:\USERS\ANTON\ONEDRIVE\DOCUMENTI\PIETRO\MASTER\MATERIALE_DIDATTICO\ADV_GRAPHICS\VS\ADVANCEDGRAPHICSPROJECT\ADVANCEDGRAPHICSPROJECT\SCENE.CPP
^C:\USERS\ANTON\ONEDRIVE\DOCUMENTI\PIETRO\MASTER\MATERIALE_DIDATTICO\ADV_GRAPHICS\VS\ADVANCEDGRAPHICSPROJECT\ADVANCEDGRAPHICSPROJECT\SHAPE3.CPP
/c /ZI /JMC /nologo /W3 /WX- /diagnostics:column /sdl /Od /Oy- /D WIN32 /D _DEBUG /D _CONSOLE /D _UNICODE /D UNICODE /Gm- /EHsc /RTC1 /MDd /GS /fp:precise /permissive- /Zc:wchar_t /Zc:forScope /Zc:inline /Fo"DEBUG\\" /Fd"DEBUG\VC142.PDB" /external:W3 /Gd /TP /analyze- /FC C:\USERS\ANTON\ONEDRIVE\DOCUMENTI\PIETRO\MASTER\MATERIALE_DIDATTICO\ADV_GRAPHICS\VS\ADVANCEDGRAPHICSPROJECT\ADVANCEDGRAPHICSPROJECT\SHAPE3.CPP
^C:\USERS\ANTON\ONEDRIVE\DOCUMENTI\PIETRO\MASTER\MATERIALE_DIDATTICO\ADV_GRAPHICS\VS\ADVANCEDGRAPHICSPROJECT\ADVANCEDGRAPHICSPROJECT\TRANSFORM.CPP
/c /ZI /JMC /nologo /W3 /WX- /diagnostics:column /sdl /Od /Oy- /D WIN32 /D _DEBUG /D _CONSOLE /D _UNICODE /D UNICODE /Gm- /EHsc /RTC1 /MDd /GS /fp:precise /permissive- /Zc:wchar_t /Zc:forScope /Zc:inline /Fo"DEBUG\\" /Fd"DEBUG\VC142.PDB" /external:W3 /Gd /TP /analyze- /FC C:\USERS\ANTON\ONEDRIVE\DOCUMENTI\PIETRO\MASTER\MATERIALE_DIDATTICO\ADV_GRAPHICS\VS\ADVANCEDGRAPHICSPROJECT\ADVANCEDGRAPHICSPROJECT\TRANSFORM.CPP
^C:\USERS\ANTON\ONEDRIVE\DOCUMENTI\PIETRO\MASTER\MATERIALE_DIDATTICO\ADV_GRAPHICS\VS\ADVANCEDGRAPHICSPROJECT\ADVANCEDGRAPHICSPROJECT\VECTOR3.CPP
/c /ZI /JMC /nologo /W3 /WX- /diagnostics:column /sdl /Od /Oy- /D WIN32 /D _DEBUG /D _CONSOLE /D _UNICODE /D UNICODE /Gm- /EHsc /RTC1 /MDd /GS /fp:precise /permissive- /Zc:wchar_t /Zc:forScope /Zc:inline /Fo"DEBUG\\" /Fd"DEBUG\VC142.PDB" /external:W3 /Gd /TP /analyze- /FC C:\USERS\ANTON\ONEDRIVE\DOCUMENTI\PIETRO\MASTER\MATERIALE_DIDATTICO\ADV_GRAPHICS\VS\ADVANCEDGRAPHICSPROJECT\ADVANCEDGRAPHICSPROJECT\VECTOR3.CPP
^C:\USERS\ANTON\ONEDRIVE\DOCUMENTI\PIETRO\MASTER\MATERIALE_DIDATTICO\ADV_GRAPHICS\VS\ADVANCEDGRAPHICSPROJECT\ADVANCEDGRAPHICSPROJECT\MAIN.CPP
/c /ZI /JMC /nologo /W3 /WX- /diagnostics:column /sdl /Od /Oy- /D WIN32 /D _DEBUG /D _CONSOLE /D _UNICODE /D UNICODE /Gm- /EHsc /RTC1 /MDd /GS /fp:precise /permissive- /Zc:wchar_t /Zc:forScope /Zc:inline /Fo"DEBUG\\" /Fd"DEBUG\VC142.PDB" /external:W3 /Gd /TP /analyze- /FC C:\USERS\ANTON\ONEDRIVE\DOCUMENTI\PIETRO\MASTER\MATERIALE_DIDATTICO\ADV_GRAPHICS\VS\ADVANCEDGRAPHICSPROJECT\ADVANCEDGRAPHICSPROJECT\MAIN.CPP
