^C:\USERS\ANTON\ONEDRIVE\DOCUMENTI\PIETRO\MASTER\MATERIALE_DIDATTICO\ADV_GRAPHICS\VS\ADVANCEDGRAPHICSPROJECT\ADVANCEDGRAPHICSPROJECT\MAIN.CPP|C:\USERS\ANTON\ONEDRIVE\DOCUMENTI\PIETRO\MASTER\MATERIALE_DIDATTICO\ADV_GRAPHICS\VS\ADVANCEDGRAPHICSPROJECT\ADVANCEDGRAPHICSPROJECT\QUATERNION.CPP|C:\USERS\ANTON\ONEDRIVE\DOCUMENTI\PIETRO\MASTER\MATERIALE_DIDATTICO\ADV_GRAPHICS\VS\ADVANCEDGRAPHICSPROJECT\ADVANCEDGRAPHICSPROJECT\VECTOR3.CPP
C:\USERS\ANTON\ONEDRIVE\DOCUMENTI\PIETRO\MASTER\MATERIALE_DIDATTICO\ADV_GRAPHICS\VS\ADVANCEDGRAPHICSPROJECT\ADVANCEDGRAPHICSPROJECT\DEBUG\VC142.PDB
C:\USERS\ANTON\ONEDRIVE\DOCUMENTI\PIETRO\MASTER\MATERIALE_DIDATTICO\ADV_GRAPHICS\VS\ADVANCEDGRAPHICSPROJECT\ADVANCEDGRAPHICSPROJECT\DEBUG\VC142.IDB
C:\USERS\ANTON\ONEDRIVE\DOCUMENTI\PIETRO\MASTER\MATERIALE_DIDATTICO\ADV_GRAPHICS\VS\ADVANCEDGRAPHICSPROJECT\ADVANCEDGRAPHICSPROJECT\DEBUG\VECTOR3.OBJ
C:\USERS\ANTON\ONEDRIVE\DOCUMENTI\PIETRO\MASTER\MATERIALE_DIDATTICO\ADV_GRAPHICS\VS\ADVANCEDGRAPHICSPROJECT\ADVANCEDGRAPHICSPROJECT\DEBUG\MAIN.OBJ
^C:\USERS\ANTON\ONEDRIVE\DOCUMENTI\PIETRO\MASTER\MATERIALE_DIDATTICO\ADV_GRAPHICS\VS\ADVANCEDGRAPHICSPROJECT\ADVANCEDGRAPHICSPROJECT\QUATERNION.CPP|C:\USERS\ANTON\ONEDRIVE\DOCUMENTI\PIETRO\MASTER\MATERIALE_DIDATTICO\ADV_GRAPHICS\VS\ADVANCEDGRAPHICSPROJECT\ADVANCEDGRAPHICSPROJECT\VECTOR3.CPP
C:\USERS\ANTON\ONEDRIVE\DOCUMENTI\PIETRO\MASTER\MATERIALE_DIDATTICO\ADV_GRAPHICS\VS\ADVANCEDGRAPHICSPROJECT\ADVANCEDGRAPHICSPROJECT\DEBUG\VC142.PDB
C:\USERS\ANTON\ONEDRIVE\DOCUMENTI\PIETRO\MASTER\MATERIALE_DIDATTICO\ADV_GRAPHICS\VS\ADVANCEDGRAPHICSPROJECT\ADVANCEDGRAPHICSPROJECT\DEBUG\VC142.IDB
C:\USERS\ANTON\ONEDRIVE\DOCUMENTI\PIETRO\MASTER\MATERIALE_DIDATTICO\ADV_GRAPHICS\VS\ADVANCEDGRAPHICSPROJECT\ADVANCEDGRAPHICSPROJECT\DEBUG\VECTOR3.OBJ
C:\USERS\ANTON\ONEDRIVE\DOCUMENTI\PIETRO\MASTER\MATERIALE_DIDATTICO\ADV_GRAPHICS\VS\ADVANCEDGRAPHICSPROJECT\ADVANCEDGRAPHICSPROJECT\DEBUG\QUATERNION.OBJ
^C:\USERS\ANTON\ONEDRIVE\DOCUMENTI\PIETRO\MASTER\MATERIALE_DIDATTICO\ADV_GRAPHICS\VS\ADVANCEDGRAPHICSPROJECT\ADVANCEDGRAPHICSPROJECT\QUATERNION.CPP|C:\USERS\ANTON\ONEDRIVE\DOCUMENTI\PIETRO\MASTER\MATERIALE_DIDATTICO\ADV_GRAPHICS\VS\ADVANCEDGRAPHICSPROJECT\ADVANCEDGRAPHICSPROJECT\TRANSFORM.CPP|C:\USERS\ANTON\ONEDRIVE\DOCUMENTI\PIETRO\MASTER\MATERIALE_DIDATTICO\ADV_GRAPHICS\VS\ADVANCEDGRAPHICSPROJECT\ADVANCEDGRAPHICSPROJECT\VECTOR3.CPP
C:\USERS\ANTON\ONEDRIVE\DOCUMENTI\PIETRO\MASTER\MATERIALE_DIDATTICO\ADV_GRAPHICS\VS\ADVANCEDGRAPHICSPROJECT\ADVANCEDGRAPHICSPROJECT\DEBUG\VC142.PDB
C:\USERS\ANTON\ONEDRIVE\DOCUMENTI\PIETRO\MASTER\MATERIALE_DIDATTICO\ADV_GRAPHICS\VS\ADVANCEDGRAPHICSPROJECT\ADVANCEDGRAPHICSPROJECT\DEBUG\VC142.IDB
C:\USERS\ANTON\ONEDRIVE\DOCUMENTI\PIETRO\MASTER\MATERIALE_DIDATTICO\ADV_GRAPHICS\VS\ADVANCEDGRAPHICSPROJECT\ADVANCEDGRAPHICSPROJECT\DEBUG\TRANSFORM.OBJ
C:\USERS\ANTON\ONEDRIVE\DOCUMENTI\PIETRO\MASTER\MATERIALE_DIDATTICO\ADV_GRAPHICS\VS\ADVANCEDGRAPHICSPROJECT\ADVANCEDGRAPHICSPROJECT\DEBUG\QUATERNION.OBJ
^C:\USERS\ANTON\ONEDRIVE\DOCUMENTI\PIETRO\MASTER\MATERIALE_DIDATTICO\ADV_GRAPHICS\VS\ADVANCEDGRAPHICSPROJECT\ADVANCEDGRAPHICSPROJECT\GAMEOBJECT.CPP|C:\USERS\ANTON\ONEDRIVE\DOCUMENTI\PIETRO\MASTER\MATERIALE_DIDATTICO\ADV_GRAPHICS\VS\ADVANCEDGRAPHICSPROJECT\ADVANCEDGRAPHICSPROJECT\QUATERNION.CPP|C:\USERS\ANTON\ONEDRIVE\DOCUMENTI\PIETRO\MASTER\MATERIALE_DIDATTICO\ADV_GRAPHICS\VS\ADVANCEDGRAPHICSPROJECT\ADVANCEDGRAPHICSPROJECT\TRANSFORM.CPP
C:\USERS\ANTON\ONEDRIVE\DOCUMENTI\PIETRO\MASTER\MATERIALE_DIDATTICO\ADV_GRAPHICS\VS\ADVANCEDGRAPHICSPROJECT\ADVANCEDGRAPHICSPROJECT\DEBUG\VC142.PDB
C:\USERS\ANTON\ONEDRIVE\DOCUMENTI\PIETRO\MASTER\MATERIALE_DIDATTICO\ADV_GRAPHICS\VS\ADVANCEDGRAPHICSPROJECT\ADVANCEDGRAPHICSPROJECT\DEBUG\VC142.IDB
C:\USERS\ANTON\ONEDRIVE\DOCUMENTI\PIETRO\MASTER\MATERIALE_DIDATTICO\ADV_GRAPHICS\VS\ADVANCEDGRAPHICSPROJECT\ADVANCEDGRAPHICSPROJECT\DEBUG\TRANSFORM.OBJ
C:\USERS\ANTON\ONEDRIVE\DOCUMENTI\PIETRO\MASTER\MATERIALE_DIDATTICO\ADV_GRAPHICS\VS\ADVANCEDGRAPHICSPROJECT\ADVANCEDGRAPHICSPROJECT\DEBUG\QUATERNION.OBJ
C:\USERS\ANTON\ONEDRIVE\DOCUMENTI\PIETRO\MASTER\MATERIALE_DIDATTICO\ADV_GRAPHICS\VS\ADVANCEDGRAPHICSPROJECT\ADVANCEDGRAPHICSPROJECT\DEBUG\GAMEOBJECT.OBJ
^C:\USERS\ANTON\ONEDRIVE\DOCUMENTI\PIETRO\MASTER\MATERIALE_DIDATTICO\ADV_GRAPHICS\VS\ADVANCEDGRAPHICSPROJECT\ADVANCEDGRAPHICSPROJECT\GAMEOBJECT.CPP|C:\USERS\ANTON\ONEDRIVE\DOCUMENTI\PIETRO\MASTER\MATERIALE_DIDATTICO\ADV_GRAPHICS\VS\ADVANCEDGRAPHICSPROJECT\ADVANCEDGRAPHICSPROJECT\SCENE.CPP|C:\USERS\ANTON\ONEDRIVE\DOCUMENTI\PIETRO\MASTER\MATERIALE_DIDATTICO\ADV_GRAPHICS\VS\ADVANCEDGRAPHICSPROJECT\ADVANCEDGRAPHICSPROJECT\SHAPE3.CPP
C:\USERS\ANTON\ONEDRIVE\DOCUMENTI\PIETRO\MASTER\MATERIALE_DIDATTICO\ADV_GRAPHICS\VS\ADVANCEDGRAPHICSPROJECT\ADVANCEDGRAPHICSPROJECT\DEBUG\VC142.PDB
C:\USERS\ANTON\ONEDRIVE\DOCUMENTI\PIETRO\MASTER\MATERIALE_DIDATTICO\ADV_GRAPHICS\VS\ADVANCEDGRAPHICSPROJECT\ADVANCEDGRAPHICSPROJECT\DEBUG\VC142.IDB
C:\USERS\ANTON\ONEDRIVE\DOCUMENTI\PIETRO\MASTER\MATERIALE_DIDATTICO\ADV_GRAPHICS\VS\ADVANCEDGRAPHICSPROJECT\ADVANCEDGRAPHICSPROJECT\DEBUG\GAMEOBJECT.OBJ
^C:\USERS\ANTON\ONEDRIVE\DOCUMENTI\PIETRO\MASTER\MATERIALE_DIDATTICO\ADV_GRAPHICS\VS\ADVANCEDGRAPHICSPROJECT\ADVANCEDGRAPHICSPROJECT\SCENE.CPP|C:\USERS\ANTON\ONEDRIVE\DOCUMENTI\PIETRO\MASTER\MATERIALE_DIDATTICO\ADV_GRAPHICS\VS\ADVANCEDGRAPHICSPROJECT\ADVANCEDGRAPHICSPROJECT\SHAPE3.CPP
C:\USERS\ANTON\ONEDRIVE\DOCUMENTI\PIETRO\MASTER\MATERIALE_DIDATTICO\ADV_GRAPHICS\VS\ADVANCEDGRAPHICSPROJECT\ADVANCEDGRAPHICSPROJECT\DEBUG\VC142.PDB
C:\USERS\ANTON\ONEDRIVE\DOCUMENTI\PIETRO\MASTER\MATERIALE_DIDATTICO\ADV_GRAPHICS\VS\ADVANCEDGRAPHICSPROJECT\ADVANCEDGRAPHICSPROJECT\DEBUG\VC142.IDB
C:\USERS\ANTON\ONEDRIVE\DOCUMENTI\PIETRO\MASTER\MATERIALE_DIDATTICO\ADV_GRAPHICS\VS\ADVANCEDGRAPHICSPROJECT\ADVANCEDGRAPHICSPROJECT\DEBUG\SCENE.OBJ
^C:\USERS\ANTON\ONEDRIVE\DOCUMENTI\PIETRO\MASTER\MATERIALE_DIDATTICO\ADV_GRAPHICS\VS\ADVANCEDGRAPHICSPROJECT\ADVANCEDGRAPHICSPROJECT\CAMERA.CPP|C:\USERS\ANTON\ONEDRIVE\DOCUMENTI\PIETRO\MASTER\MATERIALE_DIDATTICO\ADV_GRAPHICS\VS\ADVANCEDGRAPHICSPROJECT\ADVANCEDGRAPHICSPROJECT\GAMEOBJECT.CPP|C:\USERS\ANTON\ONEDRIVE\DOCUMENTI\PIETRO\MASTER\MATERIALE_DIDATTICO\ADV_GRAPHICS\VS\ADVANCEDGRAPHICSPROJECT\ADVANCEDGRAPHICSPROJECT\QUATERNION.CPP|C:\USERS\ANTON\ONEDRIVE\DOCUMENTI\PIETRO\MASTER\MATERIALE_DIDATTICO\ADV_GRAPHICS\VS\ADVANCEDGRAPHICSPROJECT\ADVANCEDGRAPHICSPROJECT\SCENE.CPP|C:\USERS\ANTON\ONEDRIVE\DOCUMENTI\PIETRO\MASTER\MATERIALE_DIDATTICO\ADV_GRAPHICS\VS\ADVANCEDGRAPHICSPROJECT\ADVANCEDGRAPHICSPROJECT\SHAPE3.CPP|C:\USERS\ANTON\ONEDRIVE\DOCUMENTI\PIETRO\MASTER\MATERIALE_DIDATTICO\ADV_GRAPHICS\VS\ADVANCEDGRAPHICSPROJECT\ADVANCEDGRAPHICSPROJECT\TRANSFORM.CPP|C:\USERS\ANTON\ONEDRIVE\DOCUMENTI\PIETRO\MASTER\MATERIALE_DIDATTICO\ADV_GRAPHICS\VS\ADVANCEDGRAPHICSPROJECT\ADVANCEDGRAPHICSPROJECT\VECTOR3.CPP
C:\USERS\ANTON\ONEDRIVE\DOCUMENTI\PIETRO\MASTER\MATERIALE_DIDATTICO\ADV_GRAPHICS\VS\ADVANCEDGRAPHICSPROJECT\ADVANCEDGRAPHICSPROJECT\DEBUG\VC142.PDB
C:\USERS\ANTON\ONEDRIVE\DOCUMENTI\PIETRO\MASTER\MATERIALE_DIDATTICO\ADV_GRAPHICS\VS\ADVANCEDGRAPHICSPROJECT\ADVANCEDGRAPHICSPROJECT\DEBUG\VC142.IDB
C:\USERS\ANTON\ONEDRIVE\DOCUMENTI\PIETRO\MASTER\MATERIALE_DIDATTICO\ADV_GRAPHICS\VS\ADVANCEDGRAPHICSPROJECT\ADVANCEDGRAPHICSPROJECT\DEBUG\VECTOR3.OBJ
C:\USERS\ANTON\ONEDRIVE\DOCUMENTI\PIETRO\MASTER\MATERIALE_DIDATTICO\ADV_GRAPHICS\VS\ADVANCEDGRAPHICSPROJECT\ADVANCEDGRAPHICSPROJECT\DEBUG\TRANSFORM.OBJ
C:\USERS\ANTON\ONEDRIVE\DOCUMENTI\PIETRO\MASTER\MATERIALE_DIDATTICO\ADV_GRAPHICS\VS\ADVANCEDGRAPHICSPROJECT\ADVANCEDGRAPHICSPROJECT\DEBUG\SHAPE3.OBJ
C:\USERS\ANTON\ONEDRIVE\DOCUMENTI\PIETRO\MASTER\MATERIALE_DIDATTICO\ADV_GRAPHICS\VS\ADVANCEDGRAPHICSPROJECT\ADVANCEDGRAPHICSPROJECT\DEBUG\SCENE.OBJ
C:\USERS\ANTON\ONEDRIVE\DOCUMENTI\PIETRO\MASTER\MATERIALE_DIDATTICO\ADV_GRAPHICS\VS\ADVANCEDGRAPHICSPROJECT\ADVANCEDGRAPHICSPROJECT\DEBUG\QUATERNION.OBJ
C:\USERS\ANTON\ONEDRIVE\DOCUMENTI\PIETRO\MASTER\MATERIALE_DIDATTICO\ADV_GRAPHICS\VS\ADVANCEDGRAPHICSPROJECT\ADVANCEDGRAPHICSPROJECT\DEBUG\GAMEOBJECT.OBJ
C:\USERS\ANTON\ONEDRIVE\DOCUMENTI\PIETRO\MASTER\MATERIALE_DIDATTICO\ADV_GRAPHICS\VS\ADVANCEDGRAPHICSPROJECT\ADVANCEDGRAPHICSPROJECT\DEBUG\CAMERA.OBJ
^C:\USERS\ANTON\ONEDRIVE\DOCUMENTI\PIETRO\MASTER\MATERIALE_DIDATTICO\ADV_GRAPHICS\VS\ADVANCEDGRAPHICSPROJECT\ADVANCEDGRAPHICSPROJECT\CAMERA.CPP
C:\USERS\ANTON\ONEDRIVE\DOCUMENTI\PIETRO\MASTER\MATERIALE_DIDATTICO\ADV_GRAPHICS\VS\ADVANCEDGRAPHICSPROJECT\ADVANCEDGRAPHICSPROJECT\DEBUG\VC142.PDB
^C:\USERS\ANTON\ONEDRIVE\DOCUMENTI\PIETRO\MASTER\MATERIALE_DIDATTICO\ADV_GRAPHICS\VS\ADVANCEDGRAPHICSPROJECT\ADVANCEDGRAPHICSPROJECT\GAMEOBJECT.CPP
C:\USERS\ANTON\ONEDRIVE\DOCUMENTI\PIETRO\MASTER\MATERIALE_DIDATTICO\ADV_GRAPHICS\VS\ADVANCEDGRAPHICSPROJECT\ADVANCEDGRAPHICSPROJECT\DEBUG\VC142.PDB
^C:\USERS\ANTON\ONEDRIVE\DOCUMENTI\PIETRO\MASTER\MATERIALE_DIDATTICO\ADV_GRAPHICS\VS\ADVANCEDGRAPHICSPROJECT\ADVANCEDGRAPHICSPROJECT\QUATERNION.CPP
C:\USERS\ANTON\ONEDRIVE\DOCUMENTI\PIETRO\MASTER\MATERIALE_DIDATTICO\ADV_GRAPHICS\VS\ADVANCEDGRAPHICSPROJECT\ADVANCEDGRAPHICSPROJECT\DEBUG\VC142.PDB
^C:\USERS\ANTON\ONEDRIVE\DOCUMENTI\PIETRO\MASTER\MATERIALE_DIDATTICO\ADV_GRAPHICS\VS\ADVANCEDGRAPHICSPROJECT\ADVANCEDGRAPHICSPROJECT\SCENE.CPP
C:\USERS\ANTON\ONEDRIVE\DOCUMENTI\PIETRO\MASTER\MATERIALE_DIDATTICO\ADV_GRAPHICS\VS\ADVANCEDGRAPHICSPROJECT\ADVANCEDGRAPHICSPROJECT\DEBUG\VC142.PDB
^C:\USERS\ANTON\ONEDRIVE\DOCUMENTI\PIETRO\MASTER\MATERIALE_DIDATTICO\ADV_GRAPHICS\VS\ADVANCEDGRAPHICSPROJECT\ADVANCEDGRAPHICSPROJECT\SHAPE3.CPP
C:\USERS\ANTON\ONEDRIVE\DOCUMENTI\PIETRO\MASTER\MATERIALE_DIDATTICO\ADV_GRAPHICS\VS\ADVANCEDGRAPHICSPROJECT\ADVANCEDGRAPHICSPROJECT\DEBUG\VC142.PDB
^C:\USERS\ANTON\ONEDRIVE\DOCUMENTI\PIETRO\MASTER\MATERIALE_DIDATTICO\ADV_GRAPHICS\VS\ADVANCEDGRAPHICSPROJECT\ADVANCEDGRAPHICSPROJECT\TRANSFORM.CPP
C:\USERS\ANTON\ONEDRIVE\DOCUMENTI\PIETRO\MASTER\MATERIALE_DIDATTICO\ADV_GRAPHICS\VS\ADVANCEDGRAPHICSPROJECT\ADVANCEDGRAPHICSPROJECT\DEBUG\VC142.PDB
^C:\USERS\ANTON\ONEDRIVE\DOCUMENTI\PIETRO\MASTER\MATERIALE_DIDATTICO\ADV_GRAPHICS\VS\ADVANCEDGRAPHICSPROJECT\ADVANCEDGRAPHICSPROJECT\VECTOR3.CPP
C:\USERS\ANTON\ONEDRIVE\DOCUMENTI\PIETRO\MASTER\MATERIALE_DIDATTICO\ADV_GRAPHICS\VS\ADVANCEDGRAPHICSPROJECT\ADVANCEDGRAPHICSPROJECT\DEBUG\VC142.PDB
^C:\USERS\ANTON\ONEDRIVE\DOCUMENTI\PIETRO\MASTER\MATERIALE_DIDATTICO\ADV_GRAPHICS\VS\ADVANCEDGRAPHICSPROJECT\ADVANCEDGRAPHICSPROJECT\MAIN.CPP
C:\USERS\ANTON\ONEDRIVE\DOCUMENTI\PIETRO\MASTER\MATERIALE_DIDATTICO\ADV_GRAPHICS\VS\ADVANCEDGRAPHICSPROJECT\ADVANCEDGRAPHICSPROJECT\DEBUG\VC142.PDB
C:\USERS\ANTON\ONEDRIVE\DOCUMENTI\PIETRO\MASTER\MATERIALE_DIDATTICO\ADV_GRAPHICS\VS\ADVANCEDGRAPHICSPROJECT\ADVANCEDGRAPHICSPROJECT\DEBUG\VC142.IDB
C:\USERS\ANTON\ONEDRIVE\DOCUMENTI\PIETRO\MASTER\MATERIALE_DIDATTICO\ADV_GRAPHICS\VS\ADVANCEDGRAPHICSPROJECT\ADVANCEDGRAPHICSPROJECT\DEBUG\MAIN.OBJ
